timeStep velocity-PID5 density-PID5
1 0.0 0.0
2 49.5038943611647 9.445100354191264E-4
3 22.85203955201989 9.445100354191264E-4
4 10.876487932705508 9.445100354191264E-4
5 5.495657843010378 9.445100354191264E-4
6 3.077805837317005 9.445100354191264E-4
7 1.886190465554475 0.0018890200708382527
8 1.586395219327017 0.0037780401416765055
9 1.4958913901048814 0.005667060212514758
10 1.3866250647686926 0.007556080283353011
11 1.387243745939643 0.009445100354191263
12 1.3373227950428865 0.012278630460448641
13 1.3072662470666137 0.015112160566706022
14 1.3037681911068806 0.016056670602125147
15 1.2709642938842864 0.018890200708382526
16 1.281914468028989 0.019834710743801654
17 1.2706048862612709 0.021723730814639904
18 1.2927026164891664 0.021723730814639904
19 1.2627410666951828 0.023612750885478158
20 1.2511754192194449 0.023612750885478158
21 1.2583663998600934 0.023612750885478158
22 1.2635759751078823 0.023612750885478158
23 1.2681674304587753 0.023612750885478158
24 1.2664575040549182 0.023612750885478158
25 1.270157621136338 0.023612750885478158
26 1.272274614348624 0.023612750885478158
27 1.275909712205899 0.023612750885478158
28 1.2817408395513934 0.023612750885478158
29 1.28488736190683 0.023612750885478158
30 1.2769108034794936 0.023612750885478158
31 1.2784752380616955 0.023612750885478158
32 1.2873664815056733 0.023612750885478158
33 1.2980064784785663 0.023612750885478158
34 1.303656026967103 0.023612750885478158
35 1.3067898973153362 0.023612750885478158
36 1.3089778266383985 0.023612750885478158
37 1.3124273251758054 0.023612750885478158
38 1.3187485527514997 0.023612750885478158
39 1.3227246198327918 0.023612750885478158
40 1.326151479060762 0.023612750885478158
41 1.334381364681636 0.023612750885478158
42 1.3311985417071939 0.023612750885478158
43 1.3303207768988585 0.023612750885478158
44 1.3323400263168883 0.023612750885478158
45 1.3335640309491301 0.023612750885478158
46 1.3277550940343317 0.023612750885478158
47 1.3256077380374014 0.023612750885478158
48 1.3282096521330229 0.023612750885478158
49 1.3318842368670922 0.023612750885478158
50 1.334446727070337 0.023612750885478158
51 1.3354699329556465 0.023612750885478158
52 1.3359688435426538 0.023612750885478158
53 1.3362981145861335 0.023612750885478158
54 1.3359198809695614 0.023612750885478158
55 1.3323418874759911 0.023612750885478158
56 1.33327195988972 0.023612750885478158
57 1.3359816262072137 0.023612750885478158
58 1.3378883923236193 0.023612750885478158
59 1.3394071713567235 0.023612750885478158
60 1.3411871761744094 0.023612750885478158
61 1.3433005687761908 0.023612750885478158
62 1.345234391205324 0.023612750885478158
63 1.3462817547907846 0.023612750885478158
64 1.3466976561064623 0.023612750885478158
65 1.3434263875806949 0.023612750885478158
66 1.3382663644185602 0.023612750885478158
67 1.339025261740514 0.023612750885478158
68 1.3414391531314829 0.023612750885478158
69 1.3441341858651177 0.023612750885478158
70 1.3459438518315927 0.023612750885478158
71 1.346702029453404 0.023612750885478158
72 1.3470710604491902 0.023612750885478158
73 1.347296543075453 0.023612750885478158
74 1.3474738527247334 0.023612750885478158
75 1.3476509633758837 0.023612750885478158
76 1.347856542453496 0.023612750885478158
77 1.3481114800664664 0.023612750885478158
78 1.34843731557685 0.023612750885478158
79 1.348122407429383 0.023612750885478158
80 1.347152945322458 0.023612750885478158
81 1.3489033916978872 0.023612750885478158
82 1.3505686374124388 0.023612750885478158
83 1.3519479079142085 0.023612750885478158
84 1.353253843782305 0.023612750885478158
85 1.3542021019195705 0.023612750885478158
86 1.3546668407066722 0.023612750885478158
87 1.354856411248296 0.023612750885478158
88 1.3549398816234393 0.023612750885478158
89 1.3549774349711574 0.023612750885478158
90 1.3549943465221133 0.023612750885478158
91 1.3550019904057264 0.023612750885478158
92 1.3550054772691238 0.023612750885478158
93 1.3550070485037642 0.023612750885478158
94 1.3550077358344372 0.023612750885478158
95 1.3550080438709065 0.023612750885478158
96 1.3550081822879025 0.023612750885478158
97 1.3550082444858031 0.023612750885478158
98 1.3550082724364785 0.023612750885478158
99 1.3550082849951122 0.023612750885478158
100 1.3550082906395686 0.023612750885478158
101 1.3550082931755592 0.023612750885478158
102 1.3550082943152058 0.023612750885478158
103 1.3550082948283515 0.023612750885478158
104 1.3550082950560798 0.023612750885478158
105 1.3550082951608766 0.023612750885478158
106 1.3550082952072062 0.023612750885478158
107 1.3550082952286746 0.023612750885478158
108 1.3550082952385798 0.023612750885478158
109 1.3550082952439695 0.023612750885478158
110 1.355008295246583 0.023612750885478158
111 1.3550082952454434 0.023612750885478158
112 1.3550082952496323 0.023612750885478158
113 1.3550082952488154 0.023612750885478158
114 1.3550082952484115 0.023612750885478158
115 1.355008295249273 0.023612750885478158
116 1.3550082952274076 0.023612750885478158
117 1.3550082891102015 0.023612750885478158
118 1.3549956572837676 0.023612750885478158
119 1.35472726231085 0.023612750885478158
120 1.3539734446249871 0.023612750885478158
121 1.3533768870217122 0.023612750885478158
122 1.3531896513280433 0.023612750885478158
123 1.353196992497394 0.023612750885478158
124 1.3532392540032572 0.023612750885478158
125 1.353266191698364 0.023612750885478158
126 1.3532755643949448 0.023612750885478158
127 1.3636244971194902 0.022668240850059033
128 1.3636239436610624 0.022668240850059033
129 1.3447669162953715 0.021723730814639904
130 1.344768246957558 0.021723730814639904
131 1.3447702603983613 0.021723730814639904
132 1.344772685764567 0.021723730814639904
133 1.3447754446354687 0.021723730814639904
134 1.3447785806694932 0.021723730814639904
135 1.344782171856002 0.021723730814639904
136 1.3447863052166158 0.021723730814639904
137 1.3447910693758274 0.021723730814639904
138 1.3447965593349622 0.021723730814639904
139 1.3448028858831376 0.021723730814639904
140 1.3448101712955436 0.021723730814639904
141 1.3448185608727166 0.021723730814639904
142 1.3448282171936017 0.021723730814639904
143 1.3448393271042314 0.021723730814639904
144 1.3448521062128322 0.021723730814639904
145 1.3448667961292746 0.021723730814639904
146 1.3448836659569319 0.021723730814639904
147 1.3449029818182634 0.021723730814639904
148 1.3350419374188096 0.02077922077922078
149 1.3350685837206309 0.02077922077922078
150 1.3178117151358602 0.019834710743801654
151 1.3178482487438496 0.019834710743801654
152 1.3178899364882029 0.019834710743801654
153 1.294633958520365 0.0179456906729634
154 1.275380936732522 0.017001180637544275
155 1.2737112342404968 0.017001180637544275
156 1.2699556235603082 0.017001180637544275
157 1.2689156975669709 0.017001180637544275
158 1.2575538449309625 0.016056670602125147
159 1.2578783203682204 0.016056670602125147
160 1.2580808046690797 0.016056670602125147
161 1.2433869177971746 0.015112160566706022
162 1.2435372411318724 0.015112160566706022
163 1.2436996727316383 0.015112160566706022
164 1.2315269241263496 0.014167650531286895
165 1.213802964312143 0.013223140495867768
166 1.1906340665549258 0.012278630460448641
167 1.1734170423709902 0.011334120425029516
168 1.154293276342383 0.01038961038961039
169 1.1304206086497803 0.009445100354191263
170 1.1304097796185242 0.009445100354191263
171 1.130241381629784 0.009445100354191263
172 1.1296927931167804 0.009445100354191263
173 1.1289886194029204 0.009445100354191263
174 1.1285122942356292 0.009445100354191263
175 1.1283474493464762 0.009445100354191263
176 1.1283915189696896 0.009445100354191263
177 1.128536552631546 0.009445100354191263
178 1.1071966223983427 0.008500590318772138
179 1.0805399029544993 0.007556080283353011
180 1.0807983501772882 0.007556080283353011
181 1.0810604077254364 0.007556080283353011
182 1.081317869808154 0.007556080283353011
183 1.0815617875117647 0.007556080283353011
184 1.0817827791934418 0.007556080283353011
185 1.0819723663116745 0.007556080283353011
186 1.0821247592612953 0.007556080283353011
187 1.082238380377654 0.007556080283353011
188 1.0615743161198985 0.006611570247933884
189 1.061630213620386 0.006611570247933884
190 1.0616623186279919 0.006611570247933884
191 1.0616792656735192 0.006611570247933884
192 1.0327187469284531 0.005667060212514758
193 1.0327233525115058 0.005667060212514758
194 1.0327254517930753 0.005667060212514758
195 1.0327263964265285 0.005667060212514758
196 1.0327268209076197 0.005667060212514758
197 0.9803410760442013 0.004722550177095631
198 0.9803411802228006 0.004722550177095631
199 0.9803412278836131 0.004722550177095631
200 0.9355443425815256 0.0037780401416765055
201 0.9355443557566245 0.0037780401416765055
202 0.9355443622939044 0.0037780401416765055
203 0.9355443657603977 0.0037780401416765055
204 0.9355443677641404 0.0037780401416765055
205 0.9355443690470017 0.0037780401416765055
206 0.9355443699536052 0.0037780401416765055
207 0.935544370648208 0.0037780401416765055
208 0.935544371212204 0.0037780401416765055
209 0.935544371688454 0.0037780401416765055
210 0.9355443721013718 0.0037780401416765055
211 0.9355443724663908 0.0037780401416765055
212 0.9355443727941826 0.0037780401416765055
213 0.935544373092865 0.0037780401416765055
214 0.9355443733690599 0.0037780401416765055
215 0.9355443736283273 0.0037780401416765055
216 0.9355443738756206 0.0037780401416765055
217 0.9355443741152856 0.0037780401416765055
218 0.9355443743511141 0.0037780401416765055
219 0.9355443745861453 0.0037780401416765055
220 0.9355443748225765 0.0037780401416765055
221 0.9355443750611787 0.0037780401416765055
222 0.9355443753008329 0.0037780401416765055
223 0.9355443755378888 0.0037780401416765055
224 0.9355443757656449 0.0037780401416765055
225 0.9355443759743813 0.0037780401416765055
226 0.935544376152712 0.0037780401416765055
227 0.9355443762903088 0.0037780401416765055
228 0.9355443763821987 0.0037780401416765055
229 0.9355443764322985 0.0037780401416765055
230 0.935544376452822 0.0037780401416765055
231 0.9355443764584127 0.0037780401416765055
232 0.935544376459263 0.0037780401416765055
233 0.9355443764593178 0.0037780401416765055
234 0.8747070507116614 0.0018890200708382527
235 0.8747070507116614 0.0018890200708382527
236 0.8747070507116614 0.0018890200708382527
237 0.8747070507116614 0.0018890200708382527
238 0.8747070507116792 0.0018890200708382527
239 0.8747070507116614 0.0018890200708382527
240 0.8747070507116792 0.0018890200708382527
241 0.8747070507116792 0.0018890200708382527
242 0.8747070507116614 0.0018890200708382527
243 0.8747070507116792 0.0018890200708382527
244 0.874707050711697 0.0018890200708382527
245 0.8747070507116614 0.0018890200708382527
246 0.8747070507116614 0.0018890200708382527
247 0.8747070507116792 0.0018890200708382527
248 0.8747070507116614 0.0018890200708382527
249 0.8747070507116614 0.0018890200708382527
250 0.8747070507116614 0.0018890200708382527
251 0.874707050711679 0.0018890200708382527
